%YAML 1.1
%TAG !u! tag:unity3d.com,2011:
--- !u!74 &7400000
AnimationClip:
  m_ObjectHideFlags: 0
  m_CorrespondingSourceObject: {fileID: 0}
  m_PrefabInstance: {fileID: 0}
  m_PrefabAsset: {fileID: 0}
  m_Name: Enemies
  serializedVersion: 7
  m_Legacy: 0
  m_Compressed: 0
  m_UseHighQualityCurve: 1
  m_RotationCurves: []
  m_CompressedRotationCurves: []
  m_EulerCurves: []
  m_PositionCurves: []
  m_ScaleCurves: []
  m_FloatCurves: []
  m_PPtrCurves:
  - serializedVersion: 2
    curve:
    - time: 0
      value: {fileID: -484150235, guid: 94ac8144264cac04d9d5800b510d23a4, type: 3}
    - time: 0.05
      value: {fileID: 101813143, guid: 94ac8144264cac04d9d5800b510d23a4, type: 3}
    - time: 0.1
      value: {fileID: 1064286402, guid: 94ac8144264cac04d9d5800b510d23a4, type: 3}
    - time: 0.15
      value: {fileID: 271570626, guid: 94ac8144264cac04d9d5800b510d23a4, type: 3}
    - time: 0.2
      value: {fileID: -1932332291, guid: 94ac8144264cac04d9d5800b510d23a4, type: 3}
    - time: 0.25
      value: {fileID: 1914895245, guid: 94ac8144264cac04d9d5800b510d23a4, type: 3}
    - time: 0.3
      value: {fileID: 861163150, guid: 94ac8144264cac04d9d5800b510d23a4, type: 3}
    - time: 0.35
      value: {fileID: 1263006158, guid: 94ac8144264cac04d9d5800b510d23a4, type: 3}
    - time: 0.4
      value: {fileID: -118893350, guid: 94ac8144264cac04d9d5800b510d23a4, type: 3}
    - time: 0.45
      value: {fileID: -1678220331, guid: 94ac8144264cac04d9d5800b510d23a4, type: 3}
    - time: 0.5
      value: {fileID: -118893350, guid: 94ac8144264cac04d9d5800b510d23a4, type: 3}
    - time: 0.55
      value: {fileID: 1263006158, guid: 94ac8144264cac04d9d5800b510d23a4, type: 3}
    - time: 0.6
      value: {fileID: 861163150, guid: 94ac8144264cac04d9d5800b510d23a4, type: 3}
    - time: 0.65
      value: {fileID: 1914895245, guid: 94ac8144264cac04d9d5800b510d23a4, type: 3}
    - time: 0.7
      value: {fileID: -1932332291, guid: 94ac8144264cac04d9d5800b510d23a4, type: 3}
    - time: 0.75
      value: {fileID: 271570626, guid: 94ac8144264cac04d9d5800b510d23a4, type: 3}
    - time: 0.8
      value: {fileID: 271570626, guid: 94ac8144264cac04d9d5800b510d23a4, type: 3}
    - time: 0.85
      value: {fileID: 1064286402, guid: 94ac8144264cac04d9d5800b510d23a4, type: 3}
    - time: 0.9
      value: {fileID: 101813143, guid: 94ac8144264cac04d9d5800b510d23a4, type: 3}
    - time: 0.95
      value: {fileID: -484150235, guid: 94ac8144264cac04d9d5800b510d23a4, type: 3}
    attribute: m_Sprite
    path: 
    classID: 212
    script: {fileID: 0}
    flags: 2
  m_SampleRate: 20
  m_WrapMode: 0
  m_Bounds:
    m_Center: {x: 0, y: 0, z: 0}
    m_Extent: {x: 0, y: 0, z: 0}
  m_ClipBindingConstant:
    genericBindings:
    - serializedVersion: 2
      path: 0
      attribute: 0
      script: {fileID: 0}
      typeID: 212
      customType: 23
      isPPtrCurve: 1
      isIntCurve: 0
      isSerializeReferenceCurve: 0
    pptrCurveMapping:
    - {fileID: -484150235, guid: 94ac8144264cac04d9d5800b510d23a4, type: 3}
    - {fileID: 101813143, guid: 94ac8144264cac04d9d5800b510d23a4, type: 3}
    - {fileID: 1064286402, guid: 94ac8144264cac04d9d5800b510d23a4, type: 3}
    - {fileID: 271570626, guid: 94ac8144264cac04d9d5800b510d23a4, type: 3}
    - {fileID: -1932332291, guid: 94ac8144264cac04d9d5800b510d23a4, type: 3}
    - {fileID: 1914895245, guid: 94ac8144264cac04d9d5800b510d23a4, type: 3}
    - {fileID: 861163150, guid: 94ac8144264cac04d9d5800b510d23a4, type: 3}
    - {fileID: 1263006158, guid: 94ac8144264cac04d9d5800b510d23a4, type: 3}
    - {fileID: -118893350, guid: 94ac8144264cac04d9d5800b510d23a4, type: 3}
    - {fileID: -1678220331, guid: 94ac8144264cac04d9d5800b510d23a4, type: 3}
    - {fileID: -118893350, guid: 94ac8144264cac04d9d5800b510d23a4, type: 3}
    - {fileID: 1263006158, guid: 94ac8144264cac04d9d5800b510d23a4, type: 3}
    - {fileID: 861163150, guid: 94ac8144264cac04d9d5800b510d23a4, type: 3}
    - {fileID: 1914895245, guid: 94ac8144264cac04d9d5800b510d23a4, type: 3}
    - {fileID: -1932332291, guid: 94ac8144264cac04d9d5800b510d23a4, type: 3}
    - {fileID: 271570626, guid: 94ac8144264cac04d9d5800b510d23a4, type: 3}
    - {fileID: 271570626, guid: 94ac8144264cac04d9d5800b510d23a4, type: 3}
    - {fileID: 1064286402, guid: 94ac8144264cac04d9d5800b510d23a4, type: 3}
    - {fileID: 101813143, guid: 94ac8144264cac04d9d5800b510d23a4, type: 3}
    - {fileID: -484150235, guid: 94ac8144264cac04d9d5800b510d23a4, type: 3}
  m_AnimationClipSettings:
    serializedVersion: 2
    m_AdditiveReferencePoseClip: {fileID: 0}
    m_AdditiveReferencePoseTime: 0
    m_StartTime: 0
    m_StopTime: 1
    m_OrientationOffsetY: 0
    m_Level: 0
    m_CycleOffset: 0
    m_HasAdditiveReferencePose: 0
    m_LoopTime: 1
    m_LoopBlend: 0
    m_LoopBlendOrientation: 0
    m_LoopBlendPositionY: 0
    m_LoopBlendPositionXZ: 0
    m_KeepOriginalOrientation: 0
    m_KeepOriginalPositionY: 1
    m_KeepOriginalPositionXZ: 0
    m_HeightFromFeet: 0
    m_Mirror: 0
  m_EditorCurves: []
  m_EulerEditorCurves: []
  m_HasGenericRootTransform: 0
  m_HasMotionFloatCurves: 0
  m_Events: []
